\select@language {spanish}
\contentsline {figure}{\numberline {1}{\ignorespaces Estad\IeC {\'\i }stica del Censo 2010.\relax }}{5}{figure.caption.3}
\contentsline {figure}{\numberline {2}{\ignorespaces Divisi\IeC {\'o}n Pol\IeC {\'\i }tica Administrativa.\relax }}{5}{figure.caption.4}
\contentsline {figure}{\numberline {3}{\ignorespaces Imagen demostrativa de Digicel como concesionario.\relax }}{17}{figure.caption.5}
\contentsline {figure}{\numberline {4}{\ignorespaces Factor de altura para el segmento del espectro seleccionado.\relax }}{18}{figure.caption.6}
\contentsline {figure}{\numberline {5}{\ignorespaces Ubicaci\IeC {\'o}n de la estaci\IeC {\'o}n receptora en el pueblo El Tejar\relax }}{21}{figure.caption.7}
\contentsline {figure}{\numberline {6}{\ignorespaces Ubicaci\IeC {\'o}n de la estaci\IeC {\'o}n base en el Volc\IeC {\'a}n\relax }}{22}{figure.caption.8}
\contentsline {figure}{\numberline {7}{\ignorespaces Perfil de elevaci\IeC {\'o}n de Volc\IeC {\'a}n Bar\IeC {\'u} a El Tejar\relax }}{25}{figure.caption.9}
\contentsline {figure}{\numberline {8}{\ignorespaces Radio representativo de las zonas de Fresnel.\relax }}{26}{figure.caption.10}
\contentsline {figure}{\numberline {9}{\ignorespaces Primera zona de fresnel y la zona de despeje.\relax }}{27}{figure.caption.11}
\contentsline {figure}{\numberline {10}{\ignorespaces Configurando mapa en Radio Mobile.\relax }}{31}{figure.caption.12}
\contentsline {figure}{\numberline {11}{\ignorespaces Propiedades de unidades.\relax }}{32}{figure.caption.13}
\contentsline {figure}{\numberline {12}{\ignorespaces Coordenadas geogr\IeC {\'a}ficas para BS en Volcan Bar\IeC {\'u}.\relax }}{33}{figure.caption.14}
\contentsline {figure}{\numberline {13}{\ignorespaces Coordenadas geogr\IeC {\'a}ficas para CS en el Tejar.\relax }}{33}{figure.caption.15}
\contentsline {figure}{\numberline {14}{\ignorespaces Propiedades de la red, secci\IeC {\'o}n de par\IeC {\'a}metros.\relax }}{34}{figure.caption.16}
\contentsline {figure}{\numberline {15}{\ignorespaces Secci\IeC {\'o}n de miembros Volc\IeC {\'a}n Bar\IeC {\'u}.\relax }}{35}{figure.caption.17}
\contentsline {figure}{\numberline {16}{\ignorespaces Secci\IeC {\'o}n de miembros el Tejar\relax }}{36}{figure.caption.18}
\contentsline {figure}{\numberline {17}{\ignorespaces Sistema de Volc\IeC {\'a}n Bar\IeC {\'u}.\relax }}{37}{figure.caption.19}
\contentsline {figure}{\numberline {18}{\ignorespaces Sistema de el Tejar.\relax }}{37}{figure.caption.20}
\contentsline {figure}{\numberline {19}{\ignorespaces Imagen geogr\IeC {\'a}fica del enlace desde Volc\IeC {\'a}n Bar\IeC {\'u} hasta el pueblo El Tejar.\relax }}{38}{figure.caption.21}
\contentsline {figure}{\numberline {20}{\ignorespaces Simulaci\IeC {\'o}n del Radio Enlace desde Volc\IeC {\'a}n Bar\IeC {\'u} hasta el pueblo El Tejar.\relax }}{38}{figure.caption.22}
\contentsline {figure}{\numberline {21}{\ignorespaces Arquitectura t\IeC {\'\i }pica de una red GSM.\relax }}{41}{figure.caption.23}
\contentsline {figure}{\numberline {22}{\ignorespaces Arquitectura del subsistema BSS\relax }}{42}{figure.caption.24}
\contentsline {figure}{\numberline {23}{\ignorespaces Caracter\IeC {\'\i }sticas de una red GSM1800\relax }}{43}{figure.caption.25}
\contentsline {figure}{\numberline {24}{\ignorespaces Especificaciones de la antena seleccionada\relax }}{44}{figure.caption.26}
\contentsline {figure}{\numberline {25}{\ignorespaces Patr\IeC {\'o}n de radiaci\IeC {\'o}n de la antena dado por el fabricante.\relax }}{45}{figure.caption.27}
\contentsline {figure}{\numberline {26}{\ignorespaces Antena escogida\relax }}{46}{figure.caption.28}
\contentsline {figure}{\numberline {27}{\ignorespaces RBS 2106\relax }}{48}{figure.caption.29}
\contentsline {figure}{\numberline {28}{\ignorespaces Especificaciones de RBS 2106\relax }}{48}{figure.caption.30}
\contentsline {figure}{\numberline {29}{\ignorespaces Par\IeC {\'a}metros tomados para la simulaci\IeC {\'o}n\relax }}{50}{figure.caption.31}
\contentsline {figure}{\numberline {30}{\ignorespaces Vista de la cobertura que brinda nuestra antena.\relax }}{51}{figure.caption.32}
\contentsline {figure}{\numberline {31}{\ignorespaces Vista de los diferentes planos de cobertura\relax }}{51}{figure.caption.33}
